{"intents": [
        {"tag": "привітання",
         "patterns": ["Привіт", "Добрий день!", "Доброго дня", "Мої вітання", "Hola", "Hello", "Hi", "hey", "helloo", "hellooo", "Добрий ранок",  "Доброго ранку",  "Вечір в хату", "Доброго вечора", "Добрий вечір", "Вітання", "Радий тебе чути", "Радий тебе бачити", "Як твої справи?", "Ти як?", "Як ти?", "Що нового?"], 
         "responses": ["Привіт, радий тебе бачити", "Привіт, як я можу тобі допомогти?"],
         "context": [""]
        },
        {"tag": "прощання",
         "patterns": ["Бувай", "Папа", "До побачення", "До наступної зустрічі", "До нової зустрічі", "Побачимось", "Прощавай", "До нових зустрічей", "Будемо", "Гарного дня!"],
         "responses": ["Бувай!", "Гарного дня!", "До побачення! Радий був допомогти"],
         "context": [""]
        },
        {"tag": "подяка",
         "patterns": ["Дякую", "Дуже дякую", "Дякуууую", "Дякуююю", "Подякував", "Чудово, дякую!"],
         "responses": ["Радий був допомогти!", "Будь ласка!", "Прошу!"],
         "context": [""]
        },
        {"tag": "про_себе",
                "patterns": ["Що ти вмієш?", "Розкажи про себе", "Як ти можеш мені допомогти?", "Допоможи мені", "Потрібна твоя допомога"],
                "responses": ["Я бот, який скаже, які футбольні матчі є сьогодні"],
                "context": [""]
        },
        {"tag": "сьогодні",
                "patterns": ["Який сьогодні є футбол?", "Що сьогодні можна подивитися?", "Що сьогодні є увечері?", "Дай мені список матчів", "Хочу глянути сьогодні футбол", "Що по футболу?", "Що сьогодні можна подивитися?"],
                "responses": [""],
                "context": [""]
        },
        {"tag": "без_відповіді",
         "patterns": [],
         "responses": ["Вибач, але я тебе не розумію", "Дай мені, будь ласка, більше інформації", "Я не впевнений, що правильно тебе зрозумів"],
         "context": [""]
        }
]}
